COVID-19 in Japan and corelation between deaths rate and infection rate
…
global_country_total %>% slice_min(cases_per_thou)

## # A tibble: 1 x 6
##   Country_Region deaths cases population cases_per_thou deaths_per_thou
##   <chr>           <dbl> <dbl>      <dbl>          <dbl>           <dbl>
## 1 Micronesia          0     1     113815        0.00879               0

x_grid <- seq(1,151)

new_df <- tibble(cases_per_thou = x_grid)

global_country_total %>% mutate(pred = predict(mod))

## # A tibble: 191 x 7
##    Country_Region  deaths  cases population cases_per_thou deaths_per_thou  pred
##    <chr>            <dbl>  <dbl>      <dbl>          <dbl>           <dbl> <dbl>
##  1 Afghanistan       7488 1.70e5   38928341           4.37          0.192  0.433
##  2 Albania           3407 2.68e5    2877800          93.0           1.18   1.01 
##  3 Algeria           6715 2.61e5   43851043           5.96          0.153  0.443
##  4 Andorra            148 3.71e4      77265         481.            1.92   3.51 
##  5 Angola            1898 9.85e4   32866268           3.00          0.0577 0.424
##  6 Antigua and Ba~    134 7.33e3      97928          74.9           1.37   0.889
##  7 Argentina       123987 8.73e6   45195777         193.            2.74   1.65 
##  8 Armenia           8157 4.05e5    2963234         137.            2.75   1.29 
##  9 Australia         2284 1.20e6    8118000         148.            0.281  1.36 
## 10 Austria          14360 2.25e6    9006400         250.            1.59   2.02 
## # ... with 181 more rows
…
